<svg xmlns="http://www.w3.org/2000/svg" xmlns:xlink="http://www.w3.org/1999/xlink" width="1253.524" height="774.605" viewBox="0 0 1253.524 774.605">
  <defs>
    <linearGradient id="linear-gradient" x1="0.5" x2="0.5" y2="1" gradientUnits="objectBoundingBox">
      <stop offset="0" stop-color="#a5cdfc"/>
      <stop offset="1" stop-color="#5f7dd8"/>
    </linearGradient>
  </defs>
  <path id="bannerBg" d="M8615.379,1126.49c0-2.041-105.957-211.284-420.611-466.424C7855.437,371.214,7362.854,352.9,7362.854,352.9V1126.49Z" transform="translate(-7362.354 -352.385)" stroke="#707070" stroke-width="1" fill="url(#linear-gradient)"/>
</svg>
