<svg xmlns="http://www.w3.org/2000/svg" width="26.97" height="16.97" viewBox="0 0 26.97 16.97">
  <path id="down-arrow" d="M13.485,16.92l-.05.05L0,3.535,3.535,0l9.95,9.95L23.435,0,26.97,3.535,13.535,16.97Z" fill="#366594"/>
</svg>
