<svg xmlns="http://www.w3.org/2000/svg" xmlns:xlink="http://www.w3.org/1999/xlink" width="495.044" height="568.708" viewBox="0 0 495.044 568.708">
  <defs>
    <filter id="Path_369" x="0" y="0" width="495.044" height="568.708" filterUnits="userSpaceOnUse">
      <feOffset dy="45" input="SourceAlpha"/>
      <feGaussianBlur stdDeviation="15" result="blur"/>
      <feFlood flood-opacity="0.161"/>
      <feComposite operator="in" in2="blur"/>
      <feComposite in="SourceGraphic"/>
    </filter>
  </defs>
  <g id="help-sheild" transform="translate(-712.573 -2160.929)">
    <g transform="matrix(1, 0, 0, 1, 712.57, 2160.93)" filter="url(#Path_369)">
      <path id="Path_369-2" data-name="Path 369" d="M425.711,76.2,245.571,1.405a18.38,18.38,0,0,0-14.1,0L51.333,76.2A18.383,18.383,0,0,0,40,93.174v90.92A307.832,307.832,0,0,0,231.576,469.208a18.385,18.385,0,0,0,13.893,0A307.832,307.832,0,0,0,437.044,184.094V93.174A18.381,18.381,0,0,0,425.711,76.2Z" transform="translate(9 4.07)" fill="red" stroke="#b40000" stroke-width="8"/>
    </g>
    <path id="Path_382" data-name="Path 382" d="M37.226,58.432q0,8.716-3.691,13.552a11.8,11.8,0,0,1-9.878,4.836A11.677,11.677,0,0,1,18.939,76V70.326a7.981,7.981,0,0,0,4.785,1.333q7.759,0,7.759-13.159V26.986h5.742ZM77.045,59.9H52.333q.137,5.845,3.145,9.023A10.84,10.84,0,0,0,63.749,72.1a17.2,17.2,0,0,0,10.869-3.9v5.264Q70,76.82,62.416,76.82q-7.417,0-11.655-4.768T46.522,58.637q0-8.169,4.631-13.313a14.85,14.85,0,0,1,11.5-5.144q6.87,0,10.63,4.443t3.76,12.339ZM71.3,55.15Q71.269,50.3,68.961,47.6a7.977,7.977,0,0,0-6.409-2.7,9.055,9.055,0,0,0-6.733,2.837A12.874,12.874,0,0,0,52.4,55.15ZM83.4,74.735V68.72A16.589,16.589,0,0,0,93.485,72.1q7.383,0,7.383-4.922a4.271,4.271,0,0,0-.632-2.375,6.3,6.3,0,0,0-1.709-1.726A13.155,13.155,0,0,0,96,61.73q-1.453-.6-3.127-1.248a40.279,40.279,0,0,1-4.084-1.863A12.339,12.339,0,0,1,85.846,56.5a7.885,7.885,0,0,1-1.777-2.683,9.492,9.492,0,0,1-.6-3.521A8.363,8.363,0,0,1,84.6,45.939a10,10,0,0,1,3.008-3.179,14.026,14.026,0,0,1,4.29-1.931,19.027,19.027,0,0,1,4.973-.649A20.08,20.08,0,0,1,105,41.752v5.674A15.853,15.853,0,0,0,96.117,44.9a10.388,10.388,0,0,0-2.837.359,6.945,6.945,0,0,0-2.17,1.008,4.658,4.658,0,0,0-1.4,1.555,4.1,4.1,0,0,0-.5,2,4.8,4.8,0,0,0,.5,2.29,5.041,5.041,0,0,0,1.453,1.641,11.1,11.1,0,0,0,2.324,1.3q1.367.581,3.11,1.265a43.288,43.288,0,0,1,4.17,1.829,14.3,14.3,0,0,1,3.145,2.119,8.281,8.281,0,0,1,2,2.717,8.764,8.764,0,0,1,.7,3.657,8.623,8.623,0,0,1-1.145,4.512,9.813,9.813,0,0,1-3.059,3.179A14.011,14.011,0,0,1,98,76.205a21.77,21.77,0,0,1-5.229.615A19.857,19.857,0,0,1,83.4,74.735Zm48.057.923a10.807,10.807,0,0,1-5.229,1.094q-9.194,0-9.194-10.254V45.785H111.02V41h6.016V32.455l5.605-1.812V41h8.818v4.785h-8.818V65.507q0,3.521,1.2,5.024a4.774,4.774,0,0,0,3.965,1.5,5.893,5.893,0,0,0,3.657-1.162ZM167.074,59.9H142.362q.137,5.845,3.145,9.023a10.84,10.84,0,0,0,8.271,3.179,17.2,17.2,0,0,0,10.869-3.9v5.264q-4.614,3.35-12.2,3.35-7.417,0-11.655-4.768t-4.238-13.416q0-8.169,4.631-13.313a14.85,14.85,0,0,1,11.5-5.144q6.87,0,10.63,4.443t3.76,12.339Zm-5.742-4.751Q161.3,50.3,158.991,47.6a7.977,7.977,0,0,0-6.409-2.7,9.055,9.055,0,0,0-6.733,2.837,12.874,12.874,0,0,0-3.418,7.417Zm12.1,19.585V68.72A16.589,16.589,0,0,0,183.515,72.1q7.383,0,7.383-4.922a4.271,4.271,0,0,0-.632-2.375,6.3,6.3,0,0,0-1.709-1.726,13.155,13.155,0,0,0-2.529-1.35q-1.453-.6-3.127-1.248a40.279,40.279,0,0,1-4.084-1.863,12.339,12.339,0,0,1-2.939-2.119,7.885,7.885,0,0,1-1.777-2.683,9.492,9.492,0,0,1-.6-3.521,8.363,8.363,0,0,1,1.128-4.358,10,10,0,0,1,3.008-3.179,14.026,14.026,0,0,1,4.29-1.931,19.027,19.027,0,0,1,4.973-.649,20.081,20.081,0,0,1,8.135,1.572v5.674a15.853,15.853,0,0,0-8.887-2.529,10.388,10.388,0,0,0-2.837.359,6.945,6.945,0,0,0-2.17,1.008,4.658,4.658,0,0,0-1.4,1.555,4.1,4.1,0,0,0-.5,2,4.8,4.8,0,0,0,.5,2.29,5.041,5.041,0,0,0,1.453,1.641,11.1,11.1,0,0,0,2.324,1.3q1.367.581,3.11,1.265a43.288,43.288,0,0,1,4.17,1.829,14.3,14.3,0,0,1,3.145,2.119,8.28,8.28,0,0,1,2,2.717,8.764,8.764,0,0,1,.7,3.657,8.623,8.623,0,0,1-1.145,4.512,9.813,9.813,0,0,1-3.059,3.179,14.011,14.011,0,0,1-4.409,1.88,21.77,21.77,0,0,1-5.229.615A19.857,19.857,0,0,1,173.432,74.735Zm20.85-51.577-8.955,11.211h-4.341l7.622-11.211ZM254.95,76h-5.605V55.9q0-5.811-1.794-8.408t-6.033-2.6a7.471,7.471,0,0,0-6.1,3.281,12.553,12.553,0,0,0-2.512,7.861V76H227.3V55.219q0-10.322-7.964-10.322a7.377,7.377,0,0,0-6.084,3.093,12.787,12.787,0,0,0-2.393,8.049V76h-5.605V41h5.605v5.537H211a11.891,11.891,0,0,1,10.869-6.357,10.109,10.109,0,0,1,9.912,7.246q3.9-7.246,11.621-7.246,11.553,0,11.553,14.253ZM293.4,41,277.3,81.605Q273,92.475,265.2,92.475a12.825,12.825,0,0,1-3.657-.444V87.006a10.39,10.39,0,0,0,3.315.615q4.238,0,6.357-5.059l2.8-6.631L260.351,41h6.221l9.468,26.934q.171.513.718,2.666h.205q.171-.82.684-2.6l9.946-27ZM108.1,145.658a10.807,10.807,0,0,1-5.229,1.094q-9.194,0-9.194-10.254V115.785H87.658V111h6.016v-8.545l5.605-1.812V111H108.1v4.785H99.279v19.722q0,3.521,1.2,5.024a4.774,4.774,0,0,0,3.965,1.5,5.893,5.893,0,0,0,3.657-1.162Zm35.786.342h-5.605v-5.537h-.137a11.511,11.511,0,0,1-10.8,6.357q-12.51,0-12.51-14.9V111H120.4v20.029q0,11.074,8.477,11.074a8.575,8.575,0,0,0,6.75-3.025,11.574,11.574,0,0,0,2.649-7.913V111h5.605Zm27.549-.342a10.807,10.807,0,0,1-5.229,1.094q-9.194,0-9.194-10.254V115.785h-6.016V111h6.016v-8.545l5.605-1.812V111h8.818v4.785h-8.818v19.722q0,3.521,1.2,5.024a4.774,4.774,0,0,0,3.965,1.5,5.893,5.893,0,0,0,3.657-1.162Zm32.539.342h-5.605v-5.469h-.137a11.735,11.735,0,0,1-10.767,6.289q-5.229,0-8.186-2.769a9.592,9.592,0,0,1-2.957-7.349q0-9.81,11.553-11.416l10.493-1.47q0-8.921-7.212-8.921a17.23,17.23,0,0,0-11.416,4.307v-5.742a21.69,21.69,0,0,1,11.895-3.281q12.339,0,12.339,13.057Zm-5.605-17.705-8.442,1.162a13.707,13.707,0,0,0-5.879,1.931q-1.982,1.384-1.982,4.9a5.342,5.342,0,0,0,1.829,4.187,7.066,7.066,0,0,0,4.871,1.624,9,9,0,0,0,6.887-2.922,10.441,10.441,0,0,0,2.717-7.4Zm21.772,16.235q0,8.613-3.469,13.279t-9.929,4.666a10.539,10.539,0,0,1-4.648-1.094v-5.229a9.275,9.275,0,0,0,4.785,1.538q7.656,0,7.656-12.236V111h5.605ZM217.4,102.113a3.551,3.551,0,0,1-2.563-1.025,3.461,3.461,0,0,1-1.06-2.6,3.59,3.59,0,0,1,3.623-3.657,3.62,3.62,0,0,1,2.615,1.042,3.651,3.651,0,0,1,0,5.178A3.589,3.589,0,0,1,217.4,102.113ZM114.438,182.606,93.725,211.215h20.508V216H85.487v-1.743L106.2,185.785H87.436V181h27Zm-13.467-8.237A3.306,3.306,0,0,1,98.6,173.4a3.217,3.217,0,0,1-1.008-2.41,3.11,3.11,0,0,1,.991-2.324,3.47,3.47,0,0,1,4.768-.017,3.121,3.121,0,0,1,.974,2.341,3.289,3.289,0,0,1-.974,2.393A3.2,3.2,0,0,1,100.971,174.369ZM149.813,199.9H125.1q.137,5.845,3.145,9.023a10.84,10.84,0,0,0,8.271,3.179,17.2,17.2,0,0,0,10.869-3.9v5.264q-4.614,3.35-12.2,3.35-7.417,0-11.655-4.768t-4.238-13.416q0-8.169,4.631-13.313a14.85,14.85,0,0,1,11.5-5.144q6.87,0,10.63,4.443t3.76,12.339Zm-5.742-4.751q-.034-4.854-2.341-7.554a7.977,7.977,0,0,0-6.409-2.7,9.055,9.055,0,0,0-6.733,2.837,12.874,12.874,0,0,0-3.418,7.417Zm19.961,15.791H163.9V216H158.29V164.184H163.9v22.969h.137a13.255,13.255,0,0,1,12.1-6.973,12.828,12.828,0,0,1,10.544,4.7q3.811,4.7,3.811,12.6,0,8.784-4.272,14.065a14.225,14.225,0,0,1-11.689,5.281A11.512,11.512,0,0,1,164.032,210.941Zm-.137-14.116v4.888a10.407,10.407,0,0,0,2.82,7.366,10.06,10.06,0,0,0,15.142-.872q2.888-3.9,2.888-10.835,0-5.845-2.7-9.16a8.936,8.936,0,0,0-7.314-3.315,9.932,9.932,0,0,0-7.861,3.4A12.487,12.487,0,0,0,163.9,196.825ZM227.3,181l-16.1,40.605q-4.307,10.869-12.1,10.869a12.826,12.826,0,0,1-3.657-.444v-5.024a10.39,10.39,0,0,0,3.315.615q4.238,0,6.357-5.059l2.8-6.631L194.247,181h6.221l9.468,26.934q.171.513.718,2.666h.205q.171-.82.684-2.6l9.946-27ZM39.977,280.941H39.84V302.1H34.235V251H39.84v6.152h.137a13.255,13.255,0,0,1,12.1-6.973q6.768,0,10.562,4.7t3.794,12.6q0,8.784-4.272,14.065A14.225,14.225,0,0,1,50.47,286.82,11.71,11.71,0,0,1,39.977,280.941Zm-.137-14.116v4.888a10.407,10.407,0,0,0,2.82,7.366,9.364,9.364,0,0,0,7.161,3.025,9.382,9.382,0,0,0,7.981-3.9q2.888-3.9,2.888-10.835,0-5.845-2.7-9.16a8.936,8.936,0,0,0-7.314-3.315,9.932,9.932,0,0,0-7.861,3.4A12.487,12.487,0,0,0,39.84,266.825Zm50.176,20q-7.759,0-12.39-4.9T72.995,268.91q0-8.818,4.819-13.774t13.022-4.956q7.827,0,12.219,4.819t4.392,13.364q0,8.374-4.734,13.416T90.016,286.82Zm.41-31.924a10.662,10.662,0,0,0-8.545,3.674q-3.145,3.674-3.145,10.134,0,6.221,3.179,9.81a10.8,10.8,0,0,0,8.511,3.589q5.435,0,8.357-3.521t2.922-10.015q0-6.562-2.922-10.117T90.426,254.9ZM166.1,286h-5.605V265.9q0-5.811-1.794-8.408t-6.033-2.6a7.471,7.471,0,0,0-6.1,3.281,12.553,12.553,0,0,0-2.512,7.861V286h-5.605V265.219q0-10.322-7.964-10.322a7.377,7.377,0,0,0-6.084,3.093,12.786,12.786,0,0,0-2.393,8.049V286H116.4V251h5.605v5.537h.137a11.891,11.891,0,0,1,10.869-6.357,10.109,10.109,0,0,1,9.912,7.246q3.9-7.246,11.621-7.246,11.553,0,11.553,14.253Zm25.225.82q-7.759,0-12.39-4.9T174.3,268.91q0-8.818,4.819-13.774t13.022-4.956q7.827,0,12.219,4.819t4.392,13.364q0,8.374-4.734,13.416T191.325,286.82Zm.41-31.924a10.662,10.662,0,0,0-8.545,3.674q-3.145,3.674-3.145,10.134,0,6.221,3.179,9.81a10.8,10.8,0,0,0,8.511,3.589q5.435,0,8.357-3.521t2.922-10.015q0-6.562-2.922-10.117T191.735,254.9Zm8.2-21.738-8.955,11.211h-4.341l7.622-11.211Zm41.631,51.235A18.214,18.214,0,0,1,232,286.82a15.845,15.845,0,0,1-12.083-4.871q-4.6-4.871-4.6-12.629,0-8.647,4.956-13.894T233.5,250.18a18.412,18.412,0,0,1,8.135,1.709v5.742a14.252,14.252,0,0,0-8.34-2.734,11.27,11.27,0,0,0-8.8,3.845q-3.435,3.845-3.435,10.1,0,6.152,3.23,9.707a11.133,11.133,0,0,0,8.665,3.555,14.049,14.049,0,0,0,8.613-3.042Zm34.795-47.407-.649,35.205H271.1l-.615-35.205Zm-2.871,49.629a3.685,3.685,0,0,1-2.683-1.094,3.6,3.6,0,0,1-1.111-2.666,3.794,3.794,0,0,1,7.588,0,3.573,3.573,0,0,1-1.128,2.666A3.7,3.7,0,0,1,273.493,286.615Z" transform="translate(804 2214)" fill="#fff"/>
  </g>
</svg>
